^C:\USERS\STEPA\ONEDRIVE\DESKTOP\C++\СУММА ЧИСЕЛ РАВНА 4\DEBUG\СУММА ЧИСЕЛ РАВНА 4.OBJ
C:\USERS\STEPA\ONEDRIVE\DESKTOP\C++\сумма чисел равна 4\DEBUG\сумма чисел равна 4.EXE
C:\USERS\STEPA\ONEDRIVE\DESKTOP\C++\сумма чисел равна 4\DEBUG\сумма чисел равна 4.ILK
C:\USERS\STEPA\ONEDRIVE\DESKTOP\C++\СУММА ЧИСЕЛ РАВНА 4\DEBUG\СУММА ЧИСЕЛ РАВНА 4.PDB
