^C:\USERS\STEPA\ONEDRIVE\DESKTOP\ОСНОВЫ ПРОГРАММИРОВАНИЯ\АВТОБУСЫ\DEBUG\АВТОБУСЫ.OBJ
C:\USERS\STEPA\ONEDRIVE\DESKTOP\основы программирования\автобусы\DEBUG\автобусы.EXE
C:\USERS\STEPA\ONEDRIVE\DESKTOP\основы программирования\автобусы\DEBUG\автобусы.ILK
C:\USERS\STEPA\ONEDRIVE\DESKTOP\ОСНОВЫ ПРОГРАММИРОВАНИЯ\АВТОБУСЫ\DEBUG\АВТОБУСЫ.PDB
