﻿  время пути поезда.cpp
C:\Users\stepa\OneDrive\Desktop\основы программирования\время пути поезда\время пути поезда.cpp(95,17): error C2131: выражение не определяется константой
C:\Users\stepa\OneDrive\Desktop\основы программирования\время пути поезда\время пути поезда.cpp(95,17): message : сбой вызван чтением переменной вне срока ее существования
C:\Users\stepa\OneDrive\Desktop\основы программирования\время пути поезда\время пути поезда.cpp(95,17): message : см. использование "linecount"
C:\Users\stepa\OneDrive\Desktop\основы программирования\время пути поезда\время пути поезда.cpp(109,38): error C3863: тип массива "std::string [linecount]" является неназначаемым
C:\Users\stepa\OneDrive\Desktop\основы программирования\время пути поезда\время пути поезда.cpp(110,28): error C3863: тип массива "std::string [linecount]" является неназначаемым
C:\Users\stepa\OneDrive\Desktop\основы программирования\время пути поезда\время пути поезда.cpp(118,25): warning C4552: "<<": результат выражения не используется
C:\Users\stepa\OneDrive\Desktop\основы программирования\время пути поезда\время пути поезда.cpp(137,33): warning C4552: "<<": результат выражения не используется
C:\Users\stepa\OneDrive\Desktop\основы программирования\время пути поезда\время пути поезда.cpp(157,36): warning C4552: "<<": результат выражения не используется
